{
  "area": [
    {
      "width": 19,
      "type": "match",
      "height": 18,
      "ypos": 741,
      "xpos": 779,
      "match": 90
    }
  ],
  "properties": [],
  "tags": [
    "DESKTOP-kde",
    "desktop_package_tool_update"
  ]
}
